…
### 1.3 Filter gapminder to all entries that have experienced a drop in life expectancy. Be sure to include a new variable that’s the increase in life expectancy in your tibble. Hint: you might find the `lag()` or `diff()` functions useful.


```r
gapminder %>%
  mutate(lifeExp_gain = c(diff(gapminder$lifeExp), NA)) %>% 
  filter(lifeExp_gain < 0)
```

```
## # A tibble: 221 x 7
##    country   continent  year lifeExp      pop gdpPercap lifeExp_gain
##    <fct>     <fct>     <int>   <dbl>    <int>     <dbl>        <dbl>
##  1 Albania   Europe     1987    72    3075321     3739.       -0.419
##  2 Albania   Europe     2007    76.4  3600523     5937.      -33.3  
##  3 Algeria   Africa     2007    72.3 33333216     6223.      -42.3  
##  4 Angola    Africa     1982    39.9  7016384     2757.       -0.036
##  5 Argentina Americas   2007    75.3 40301927    12779.       -6.20 
##  6 Australia Oceania    2007    81.2 20434176    34435.      -14.4  
##  7 Austria   Europe     2007    79.8  8199783    36126.      -28.9  
##  8 Bahrain   Asia       2007    75.6   708573    29796.      -38.2  
##  9 Belgium   Europe     2007    79.4 10392226    33693.      -41.2  
## 10 Benin     Africa     1997    54.8  6066080     1233.       -0.371
## # … with 211 more rows
```

### 1.4 Filter gapminder so that it shows the max GDP per capita experienced by each country.


```r
gapminder %>% 
  group_by(country) %>% 
  summarize(maxGDP = max(gdpPercap))
```

```
## # A tibble: 142 x 2
##    country     maxGDP
##    <fct>        <dbl>
##  1 Afghanistan   978.
##  2 Albania      5937.
##  3 Algeria      6223.
##  4 Angola       5523.
##  5 Argentina   12779.
##  6 Australia   34435.
##  7 Austria     36126.
##  8 Bahrain     29796.
##  9 Bangladesh   1391.
## 10 Belgium     33693.
## # … with 132 more rows
```
…
They did NOT succeed in subsetting. The above code only managed to select half of the dataset that are supposed to be selected. The correct way to achieve the objective is as followed. 


```r
filter(gapminder, country=='Rwanda' | country=='Afghanistan')
```

```
## # A tibble: 24 x 6
##    country     continent  year lifeExp      pop gdpPercap
##    <fct>       <fct>     <int>   <dbl>    <int>     <dbl>
##  1 Afghanistan Asia       1952    28.8  8425333      779.
##  2 Afghanistan Asia       1957    30.3  9240934      821.
##  3 Afghanistan Asia       1962    32.0 10267083      853.
##  4 Afghanistan Asia       1967    34.0 11537966      836.
##  5 Afghanistan Asia       1972    36.1 13079460      740.
##  6 Afghanistan Asia       1977    38.4 14880372      786.
##  7 Afghanistan Asia       1982    39.9 12881816      978.
##  8 Afghanistan Asia       1987    40.8 13867957      852.
##  9 Afghanistan Asia       1992    41.7 16317921      649.
## 10 Afghanistan Asia       1997    41.8 22227415      635.
## # … with 14 more rows
```
…
