STAT545_HW05
…
Exercise 3: File input/output

Create a subset of gapminder that only includes entries from 1952. Export it to disk and then reload it back in.

year_1952 <- gapminder %>%
  filter(year=='1952')

# Write `year_1952` dataset to `hw05` folder under the current directory:
write_csv(year_1952, here::here("hw05", "1952_dat.csv"))

# Read the dataset in:
(reload <- read_csv(here::here("hw05", "1952_dat.csv")))

## # A tibble: 142 x 6
##    country     continent  year lifeExp      pop gdpPercap
##    <chr>       <chr>     <dbl>   <dbl>    <dbl>     <dbl>
##  1 Afghanistan Asia       1952    28.8  8425333      779.
##  2 Albania     Europe     1952    55.2  1282697     1601.
##  3 Algeria     Africa     1952    43.1  9279525     2449.
##  4 Angola      Africa     1952    30.0  4232095     3521.
##  5 Argentina   Americas   1952    62.5 17876956     5911.
##  6 Australia   Oceania    1952    69.1  8691212    10040.
##  7 Austria     Europe     1952    66.8  6927772     6137.
##  8 Bahrain     Asia       1952    50.9   120447     9867.
##  9 Bangladesh  Asia       1952    37.5 46886859      684.
## 10 Belgium     Europe     1952    68    8730405     8343.
## #  with 132 more rows
…
